,8.67,31.13,41.0,56.5,63.88
Actinobacteria,0.06932409012131716,0.0,0.0336417157275021,0.07955449482895784,0.04078857919782461
Alphaproteobacteria,0.03466204506065858,0.0,0.0,0.0,0.013596193065941536
Bacilli,98.31889081455806,3.3154627539503387,3.2127838519764507,9.089101034208433,1.4819850441876274
Bacteroidia,0.03466204506065858,0.0,0.0,0.0,0.0
Betaproteobacteria,0.20797227036395147,0.0,0.0,0.0,0.0
Clostridia,0.24263431542461006,14.785553047404063,17.88057190916737,69.0533015115354,64.55472467709042
Cyanobacteria,0.0,0.0,0.0,0.0,0.0
Epsilonproteobacteria,0.0,0.0,0.0,0.0,0.0
Erysipelotrichi,0.0,0.0,0.0,0.0,0.0
Flavobacteria,0.06932409012131716,0.0,0.0,0.00994431185361973,0.0
Fusobacteria,0.0,0.0,0.0,0.0,0.0
Gammaproteobacteria,1.022530329289428,81.89898419864559,78.87300252312868,21.768098647573588,33.90890550645819
Mollicutes,0.0,0.0,0.0,0.0,0.0
Bacteroidetes_no_class,0.0,0.0,0.0,0.0,0.0
Sphingobacteria,0.0,0.0,0.0,0.0,0.0
Deltaproteobacteria,0.0,0.0,0.0,0.0,0.0
OD1_no_class,0.0,0.0,0.0,0.0,0.0
TM7_no_class,0.0,0.0,0.0,0.0,0.0
Thermomicrobia,0.0,0.0,0.0,0.0,0.0
Deinococci,0.0,0.0,0.0,0.0,0.0
OP11_no_class,0.0,0.0,0.0,0.0,0.0
Verrucomicrobiae,0.0,0.0,0.0,0.0,0.0
Acidobacteria_Gp6,0.0,0.0,0.0,0.0,0.0
Nitrospira,0.0,0.0,0.0,0.0,0.0
Subdivision3,0.0,0.0,0.0,0.0,0.0
Gemmatimonadetes,0.0,0.0,0.0,0.0,0.0
Opitutae,0.0,0.0,0.0,0.0,0.0
Holophagae,0.0,0.0,0.0,0.0,0.0
