,9.71,14.83,19.25,21.86,24.83,26.98,27.83,32.83,33.08,34.71,37.99,39.02,39.88,46.5,52.25,57.14,65.33,68.21,75.08,76.21
Actinobacteria,0.0,0.007514841812579845,0.0,0.0,0.0,0.0,0.0,0.0,0.0,0.0,0.0,0.0,0.0,0.0357653791130186,0.0,0.0,0.05736137667304015,0.021079258010118045,0.0,0.1406717074028486
Alphaproteobacteria,0.012594458438287154,0.0,0.0,0.0,0.0,0.0,0.0,0.0,0.0,0.0,0.0,0.0,0.0,0.0,0.0,0.0,0.0,0.0,0.0,0.0
Bacilli,0.5415617128463476,3.682272488164124,24.595774814115426,11.783896646222106,6.1002178649237475,0.21235931195582927,7.594639078297672,0.33648004486400596,1.1457378551787352,2.2006864526549568,1.4392895421834329,0.6315945905780949,3.283139965440632,2.432045779685265,0.7503660322108345,0.3016916280573214,2.1032504780114722,0.3794266441821248,0.5181347150259067,0.6330226833128187
Bacteroidia,0.0,0.0,0.0,0.0,0.0,0.0,0.0,0.0,0.0,0.0,0.0,0.0,0.0,0.0,0.0,0.0,0.0,0.021079258010118045,0.04317789291882556,0.03516792685071215
Betaproteobacteria,0.0,0.0,0.0,0.0,0.03844675124951941,0.0,0.0,0.0,0.0,0.0,0.007655795437145919,0.0,0.008228420966016621,0.00894134477825465,0.018301610541727673,0.010774701002047193,0.0,0.0,0.0,0.0
Clostridia,0.08816120906801007,20.545577515593298,0.0,2.2184523032754795,10.290913751121364,2.1129751539605013,0.8464613214201739,27.563323675109825,6.003666361136572,2.9880880274581063,12.241616903996325,1.3300639025115173,6.681477824405497,43.723175965665234,18.429721815519766,10.311388858959164,13.116634799235182,29.17369308600337,33.98100172711572,48.61965887110955
Cyanobacteria,0.0,0.0,0.0,0.0,0.0,0.0,0.0,0.0,0.0,0.0,0.0,0.0,0.0,0.0,0.0,0.0,0.0,0.0,0.0,0.0
Epsilonproteobacteria,0.012594458438287154,0.0,0.0,0.0,0.0,0.0,0.0,0.0,0.0,0.0,0.0,0.0,0.0,0.0,0.0,0.0,0.0,0.0,0.0,0.0703358537014243
Erysipelotrichi,0.0,0.0,0.0,0.0,0.0,0.0,0.0,0.0,0.0,0.0,0.0,0.0,0.0,0.0,0.0,0.0,0.0,0.0,0.0,0.0
Flavobacteria,0.06297229219143577,0.0,0.0,0.0,0.0,0.0,0.0,0.0,0.0,0.0,0.0,0.0,0.0,0.0,0.0,0.0,0.0,0.0,0.0,0.017583963425356074
Fusobacteria,0.0,0.0,0.0,0.0,0.0,0.0,0.0,0.0,0.0,0.0,0.0,0.0,0.0,0.0,0.0,0.0,0.0,0.0,0.0,0.0
Gammaproteobacteria,99.28211586901763,75.76463515443,75.40422518588457,85.99765105050241,83.57042163270538,97.67466553408367,91.55889960028216,72.10019628002617,92.8505957836847,94.81122551988693,86.3114377583831,98.03834150691038,90.02715378918785,53.800071530758224,80.80161054172767,89.37614481198146,84.72275334608031,70.40472175379426,65.45768566493955,50.483558994197296
Mollicutes,0.0,0.0,0.0,0.0,0.0,0.0,0.0,0.0,0.0,0.0,0.0,0.0,0.0,0.0,0.0,0.0,0.0,0.0,0.0,0.0
Bacteroidetes_no_class,0.0,0.0,0.0,0.0,0.0,0.0,0.0,0.0,0.0,0.0,0.0,0.0,0.0,0.0,0.0,0.0,0.0,0.0,0.0,0.0
Sphingobacteria,0.0,0.0,0.0,0.0,0.0,0.0,0.0,0.0,0.0,0.0,0.0,0.0,0.0,0.0,0.0,0.0,0.0,0.0,0.0,0.0
Deltaproteobacteria,0.0,0.0,0.0,0.0,0.0,0.0,0.0,0.0,0.0,0.0,0.0,0.0,0.0,0.0,0.0,0.0,0.0,0.0,0.0,0.0
OD1_no_class,0.0,0.0,0.0,0.0,0.0,0.0,0.0,0.0,0.0,0.0,0.0,0.0,0.0,0.0,0.0,0.0,0.0,0.0,0.0,0.0
TM7_no_class,0.0,0.0,0.0,0.0,0.0,0.0,0.0,0.0,0.0,0.0,0.0,0.0,0.0,0.0,0.0,0.0,0.0,0.0,0.0,0.0
Thermomicrobia,0.0,0.0,0.0,0.0,0.0,0.0,0.0,0.0,0.0,0.0,0.0,0.0,0.0,0.0,0.0,0.0,0.0,0.0,0.0,0.0
Deinococci,0.0,0.0,0.0,0.0,0.0,0.0,0.0,0.0,0.0,0.0,0.0,0.0,0.0,0.0,0.0,0.0,0.0,0.0,0.0,0.0
OP11_no_class,0.0,0.0,0.0,0.0,0.0,0.0,0.0,0.0,0.0,0.0,0.0,0.0,0.0,0.0,0.0,0.0,0.0,0.0,0.0,0.0
Verrucomicrobiae,0.0,0.0,0.0,0.0,0.0,0.0,0.0,0.0,0.0,0.0,0.0,0.0,0.0,0.0,0.0,0.0,0.0,0.0,0.0,0.0
Acidobacteria_Gp6,0.0,0.0,0.0,0.0,0.0,0.0,0.0,0.0,0.0,0.0,0.0,0.0,0.0,0.0,0.0,0.0,0.0,0.0,0.0,0.0
Nitrospira,0.0,0.0,0.0,0.0,0.0,0.0,0.0,0.0,0.0,0.0,0.0,0.0,0.0,0.0,0.0,0.0,0.0,0.0,0.0,0.0
Subdivision3,0.0,0.0,0.0,0.0,0.0,0.0,0.0,0.0,0.0,0.0,0.0,0.0,0.0,0.0,0.0,0.0,0.0,0.0,0.0,0.0
Gemmatimonadetes,0.0,0.0,0.0,0.0,0.0,0.0,0.0,0.0,0.0,0.0,0.0,0.0,0.0,0.0,0.0,0.0,0.0,0.0,0.0,0.0
Opitutae,0.0,0.0,0.0,0.0,0.0,0.0,0.0,0.0,0.0,0.0,0.0,0.0,0.0,0.0,0.0,0.0,0.0,0.0,0.0,0.0
Holophagae,0.0,0.0,0.0,0.0,0.0,0.0,0.0,0.0,0.0,0.0,0.0,0.0,0.0,0.0,0.0,0.0,0.0,0.0,0.0,0.0
