,17.13,19.25,20.02,21.38,22.13
Actinobacteria,0.0,0.0315357931251971,0.0,0.0,0.012613521695257316
Alphaproteobacteria,0.0,0.0,0.0,0.0,0.0
Bacilli,0.021877050973528767,0.16556291390728478,0.12041974883880957,0.0407000407000407,0.025227043390514632
Bacteroidia,0.0,0.0,0.0,0.0,0.0
Betaproteobacteria,0.0,0.007883948281299276,0.00860141063134354,0.0,0.0
Clostridia,0.04375410194705753,12.464522232734152,34.3540340615861,2.7472527472527473,2.0938446014127146
Cyanobacteria,0.0,0.0,0.0,0.0,0.0
Epsilonproteobacteria,0.0,0.0,0.0,0.0,0.0
Erysipelotrichi,0.0,0.0,0.0,0.0,0.0
Flavobacteria,0.0,0.0,0.0,0.0,0.0
Fusobacteria,0.0,0.0,0.0,0.0,0.0
Gammaproteobacteria,99.93436884707941,87.33049511195206,65.51694477894375,97.21204721204721,97.86831483350151
Mollicutes,0.0,0.0,0.0,0.0,0.0
Bacteroidetes_no_class,0.0,0.0,0.0,0.0,0.0
Sphingobacteria,0.0,0.0,0.0,0.0,0.0
Deltaproteobacteria,0.0,0.0,0.0,0.0,0.0
OD1_no_class,0.0,0.0,0.0,0.0,0.0
TM7_no_class,0.0,0.0,0.0,0.0,0.0
Thermomicrobia,0.0,0.0,0.0,0.0,0.0
Deinococci,0.0,0.0,0.0,0.0,0.0
OP11_no_class,0.0,0.0,0.0,0.0,0.0
Verrucomicrobiae,0.0,0.0,0.0,0.0,0.0
Acidobacteria_Gp6,0.0,0.0,0.0,0.0,0.0
Nitrospira,0.0,0.0,0.0,0.0,0.0
Subdivision3,0.0,0.0,0.0,0.0,0.0
Gemmatimonadetes,0.0,0.0,0.0,0.0,0.0
Opitutae,0.0,0.0,0.0,0.0,0.0
Holophagae,0.0,0.0,0.0,0.0,0.0
