,2.0,8.0,9.0,11.0,13.0,15.0,16.47,17.71,18.0,18.33,19.0,20.0,25.21,27.09,28.46,31.83,42.06
Actinobacteria,0.14180374361883152,0.0,0.0,0.017711654268508677,0.04108885464817668,0.0,0.0,0.0,0.0,0.0,0.022701475595913734,0.0,0.0,0.0,0.0,0.0,0.0
Alphaproteobacteria,0.6806579693703914,0.0,0.0,0.0,0.0,0.0,0.0,0.0,0.0,0.0,0.0,0.0,0.0,0.0,0.0,0.0,0.0
Bacilli,6.2960862166761205,0.8056394763343404,0.38354253835425384,0.19482819695359546,0.2670775552131484,1.2962962962962963,1.095375082982961,1.6680871788627785,2.190280629705681,0.24057738572574178,1.975028376844495,0.5410566518141311,0.02617115938236064,0.07688364941055868,0.12150668286755771,0.09179926560587515,0.21659672397454988
Bacteroidia,0.0,0.016784155756965426,0.017433751743375175,0.0,0.061633281972265024,5.348583877995643,0.7413144500995795,4.18848167539267,2.8291124800365046,8.045977011494253,12.531214528944382,27.37110120942075,3.0184070487655936,0.12813941568426448,0.022092124157737765,0.10199918400652795,0.013537295248409367
Betaproteobacteria,0.6522972206466251,0.016784155756965426,0.017433751743375175,0.0,0.030816640986132512,0.0,0.0,0.0,0.0,0.0,0.022701475595913734,0.0,0.0,0.0,0.011046062078868883,0.0,0.10829836198727494
Clostridia,0.14180374361883152,0.016784155756965426,0.03486750348675035,0.008855827134254339,0.47252182845403184,0.5882352941176471,5.0896215976986054,3.5309874589066115,7.1184120465434635,1.0692328254477412,8.87627695800227,17.939741141523445,24.356625665183635,15.210148641722194,3.280680437424058,20.297837617299063,25.328279409773927
Cyanobacteria,0.0,0.0,0.0,0.0,0.0,0.0,0.0,0.0,0.0,0.0,0.0,0.0,0.0,0.0,0.0,0.0,0.0
Epsilonproteobacteria,0.0,0.0,0.0,0.0,0.0,0.0,0.0,0.0,0.0,0.0,0.0,0.0,0.0,0.0,0.0,0.0,0.0
Erysipelotrichi,0.0,0.0,0.0,0.0,0.0,0.0,0.0,0.0,0.0,0.0,0.0,0.0,0.0,0.0,0.0,0.0,0.0
Flavobacteria,0.11344299489506524,0.03356831151393085,0.017433751743375175,0.0,0.01027221366204417,0.0,0.0,0.0,0.0,0.0,0.0,0.0,0.0,0.0,0.0,0.0,0.0
Fusobacteria,0.0,0.0,0.0,0.0,0.0,0.0,0.0,0.0,0.0,0.0,0.0,0.0,0.0,0.0,0.0,0.0,0.0
Gammaproteobacteria,91.97390811117414,99.11043974488084,99.52928870292887,99.77860432164364,99.11658962506421,92.76688453159042,93.07368886921886,90.61244368683793,87.86219484371435,90.64421277733227,76.57207718501702,54.14810099724167,72.59879612666842,84.58482829318298,96.56467469347177,79.50836393308853,74.33328820901583
Mollicutes,0.0,0.0,0.0,0.0,0.0,0.0,0.0,0.0,0.0,0.0,0.0,0.0,0.0,0.0,0.0,0.0,0.0
Bacteroidetes_no_class,0.0,0.0,0.0,0.0,0.0,0.0,0.0,0.0,0.0,0.0,0.0,0.0,0.0,0.0,0.0,0.0,0.0
Sphingobacteria,0.0,0.0,0.0,0.0,0.0,0.0,0.0,0.0,0.0,0.0,0.0,0.0,0.0,0.0,0.0,0.0,0.0
Deltaproteobacteria,0.0,0.0,0.0,0.0,0.0,0.0,0.0,0.0,0.0,0.0,0.0,0.0,0.0,0.0,0.0,0.0,0.0
OD1_no_class,0.0,0.0,0.0,0.0,0.0,0.0,0.0,0.0,0.0,0.0,0.0,0.0,0.0,0.0,0.0,0.0,0.0
TM7_no_class,0.0,0.0,0.0,0.0,0.0,0.0,0.0,0.0,0.0,0.0,0.0,0.0,0.0,0.0,0.0,0.0,0.0
Thermomicrobia,0.0,0.0,0.0,0.0,0.0,0.0,0.0,0.0,0.0,0.0,0.0,0.0,0.0,0.0,0.0,0.0,0.0
Deinococci,0.0,0.0,0.0,0.0,0.0,0.0,0.0,0.0,0.0,0.0,0.0,0.0,0.0,0.0,0.0,0.0,0.0
OP11_no_class,0.0,0.0,0.0,0.0,0.0,0.0,0.0,0.0,0.0,0.0,0.0,0.0,0.0,0.0,0.0,0.0,0.0
Verrucomicrobiae,0.0,0.0,0.0,0.0,0.0,0.0,0.0,0.0,0.0,0.0,0.0,0.0,0.0,0.0,0.0,0.0,0.0
Acidobacteria_Gp6,0.0,0.0,0.0,0.0,0.0,0.0,0.0,0.0,0.0,0.0,0.0,0.0,0.0,0.0,0.0,0.0,0.0
Nitrospira,0.0,0.0,0.0,0.0,0.0,0.0,0.0,0.0,0.0,0.0,0.0,0.0,0.0,0.0,0.0,0.0,0.0
Subdivision3,0.0,0.0,0.0,0.0,0.0,0.0,0.0,0.0,0.0,0.0,0.0,0.0,0.0,0.0,0.0,0.0,0.0
Gemmatimonadetes,0.0,0.0,0.0,0.0,0.0,0.0,0.0,0.0,0.0,0.0,0.0,0.0,0.0,0.0,0.0,0.0,0.0
Opitutae,0.0,0.0,0.0,0.0,0.0,0.0,0.0,0.0,0.0,0.0,0.0,0.0,0.0,0.0,0.0,0.0,0.0
Holophagae,0.0,0.0,0.0,0.0,0.0,0.0,0.0,0.0,0.0,0.0,0.0,0.0,0.0,0.0,0.0,0.0,0.0
