,8.72,10.61,11.22,12.67,13.8,14.91,15.47,16.74,17.23
Actinobacteria,0.3196833612421982,0.6278252134605726,0.15533310321021745,0.02681324574339724,0.0,0.0,0.017382235355466714,0.03399818676337262,0.018716077110237695
Alphaproteobacteria,0.0,0.0,0.0,0.0,0.0,0.0,0.0,0.0,0.0
Bacilli,22.590957527782006,18.746860873932697,88.76423886779428,0.0670331143584931,0.5872193436960277,0.7001166861143524,0.8343472970624022,35.17679057116954,23.975294778214487
Bacteroidia,0.04566905160602831,51.971371170266195,0.05177770107007249,0.0,0.0,0.0,0.017382235355466714,0.011332728921124207,0.03743215422047539
Betaproteobacteria,0.04566905160602831,0.0,0.03451846738004832,0.0,0.0,0.0,0.0,0.0,0.07486430844095078
Clostridia,76.78489876693561,14.339527875439478,9.40628236106317,0.0670331143584931,0.41450777202072536,33.911901983663945,39.54458543368677,28.660471441523118,43.90791690061763
Cyanobacteria,0.0,0.0,0.01725923369002416,0.0,0.0,0.0,0.0,0.0,0.0
Epsilonproteobacteria,0.0,0.0,0.0,0.0,0.0,0.0,0.0,0.0,0.0
Erysipelotrichi,0.0,0.0,0.0,0.0,0.0,0.0,0.0,0.0,0.0
Flavobacteria,0.015223017202009439,0.0,0.03451846738004832,0.0,0.0,0.0,0.0,0.0,0.0
Fusobacteria,0.0,0.0,0.0,0.0,0.0,0.0,0.0,0.0,0.0
Gammaproteobacteria,0.1978992236261227,14.314414866901055,1.5360717984121506,99.83912052553961,98.99827288428325,65.3879813302217,59.58630279853989,36.11740707162285,31.98577578139622
Mollicutes,0.0,0.0,0.0,0.0,0.0,0.0,0.0,0.0,0.0
Bacteroidetes_no_class,0.0,0.0,0.0,0.0,0.0,0.0,0.0,0.0,0.0
Sphingobacteria,0.0,0.0,0.0,0.0,0.0,0.0,0.0,0.0,0.0
Deltaproteobacteria,0.0,0.0,0.0,0.0,0.0,0.0,0.0,0.0,0.0
OD1_no_class,0.0,0.0,0.0,0.0,0.0,0.0,0.0,0.0,0.0
TM7_no_class,0.0,0.0,0.0,0.0,0.0,0.0,0.0,0.0,0.0
Thermomicrobia,0.0,0.0,0.0,0.0,0.0,0.0,0.0,0.0,0.0
Deinococci,0.0,0.0,0.0,0.0,0.0,0.0,0.0,0.0,0.0
OP11_no_class,0.0,0.0,0.0,0.0,0.0,0.0,0.0,0.0,0.0
Verrucomicrobiae,0.0,0.0,0.0,0.0,0.0,0.0,0.0,0.0,0.0
Acidobacteria_Gp6,0.0,0.0,0.0,0.0,0.0,0.0,0.0,0.0,0.0
Nitrospira,0.0,0.0,0.0,0.0,0.0,0.0,0.0,0.0,0.0
Subdivision3,0.0,0.0,0.0,0.0,0.0,0.0,0.0,0.0,0.0
Gemmatimonadetes,0.0,0.0,0.0,0.0,0.0,0.0,0.0,0.0,0.0
Opitutae,0.0,0.0,0.0,0.0,0.0,0.0,0.0,0.0,0.0
Holophagae,0.0,0.0,0.0,0.0,0.0,0.0,0.0,0.0,0.0
