,4.83,5.25,6.35,8.46,9.74,10.5,12.39,13.01,15.12,16.15,17.89,18.76,19.39,20.41,21.9,22.13,22.68,23.9,24.05,24.95,25.51,26.76,28.4,32.01,33.61,36.61,39.92,42.89,54.27
Actinobacteria,31.940298507462686,0.0,0.0,0.019175455417066157,0.0,0.0,0.0,0.0,0.0,0.0,0.020367981533030075,0.0,0.0,0.007825950853028642,0.0,0.008954154727793696,0.0,0.0,0.0,0.0,0.008119519324455992,0.0,0.015233452662045852,0.020005001250312578,0.03697131026323573,0.017458100558659217,0.0,0.0,0.0
Alphaproteobacteria,1.3930348258706469,0.0,0.0,0.0,0.0,0.0,0.0,0.0,0.0,0.0,0.0,0.0,0.0,0.0,0.0,0.0,0.0,0.0,0.0,0.0,0.0,0.0,0.0,0.0,0.0,0.0,0.0,0.0,0.0
Bacilli,18.208955223880597,0.0,0.0,0.0,0.016712626389237067,0.0,0.0,0.0,0.02957121734844751,0.0,0.0950505804874737,0.0720832046133251,0.06862745098039216,0.5399906088589763,0.07408093341976109,0.2507163323782235,0.07271552072392341,0.5891264096953375,0.18714325816412464,0.10991599277694905,0.016239038648911984,0.018596001859600187,1.7746972351283419,1.595398849712428,1.419698314108252,1.2657122905027933,2.390640895218718,3.7267657992565058,0.05363847666726265
Bacteroidia,2.288557213930348,100.0,99.55987717502559,99.86577181208054,99.02231135622964,99.9711371945353,100.0,99.91486141330054,99.4972893050764,99.8994772818657,99.77595220313667,99.90732159406858,99.90196078431373,99.35827203005165,99.78701731641819,99.73137535816619,99.83840995394684,85.13718229254334,88.51876111163095,91.6699379759755,81.12211757063982,88.92608089260808,87.27245030086068,89.90247561890473,77.0851818988465,92.69378491620111,83.9860969820278,90.77137546468401,83.050241373145
Betaproteobacteria,0.19900497512437812,0.0,0.0,0.0,0.0,0.0,0.0,0.0,0.0,0.0,0.0,0.0,0.0,0.0,0.0,0.0,0.0,0.0,0.0,0.0,0.0,0.0,0.0,0.0,0.0,0.0,0.0,0.0,0.0
Clostridia,7.36318407960199,0.0,0.02047082906857728,0.019175455417066157,0.008356313194618534,0.0,0.0,0.01891968593321351,0.0,0.050261359067149174,0.06110394459909023,0.020595201318092886,0.0,0.0,0.009260116677470136,0.0,0.02423850690797447,14.265275206194243,11.294095630204922,8.173039177200282,18.73985060084443,10.93444909344491,10.937619011348922,8.397099274818705,21.435965690624077,5.961941340782123,13.54696507290607,5.260223048327138,16.860361165742894
Cyanobacteria,2.7860696517412937,0.0,0.0,0.0,0.0,0.0,0.0,0.0,0.0,0.0,0.0,0.0,0.0,0.0,0.0,0.0,0.0,0.0,0.0,0.0,0.0,0.0,0.0,0.0,0.0,0.0,0.0,0.0,0.0
Epsilonproteobacteria,0.0,0.0,0.0,0.0,0.0,0.0,0.0,0.0,0.0,0.0,0.0,0.0,0.0,0.0,0.0,0.0,0.0,0.0,0.0,0.0,0.0,0.0,0.0,0.0,0.0,0.0,0.0,0.0,0.0
Erysipelotrichi,0.8955223880597015,0.0,0.0,0.0,0.0,0.0,0.0,0.0,0.0,0.0,0.0,0.0,0.0,0.0,0.0,0.0,0.0,0.0,0.0,0.0,0.0,0.0,0.0,0.0,0.0,0.0,0.0,0.0,0.0
Flavobacteria,0.39800995024875624,0.0,0.0,0.0,0.0,0.0,0.0,0.0,0.0,0.0,0.0,0.0,0.0,0.0,0.0,0.0,0.0,0.0,0.0,0.0,0.0,0.0,0.0,0.0,0.0,0.0,0.0,0.0,0.0
Fusobacteria,1.2935323383084578,0.0,0.0,0.0,0.0,0.0,0.0,0.0,0.0,0.0,0.0,0.0,0.0,0.0,0.0,0.0,0.0,0.0,0.0,0.0,0.0,0.0,0.0,0.0,0.0,0.0,0.0,0.0,0.0
Gammaproteobacteria,33.134328358208954,0.0,0.4196519959058342,0.09587727708533078,0.9526197041865129,0.02886280546469117,0.0,0.06621890076624729,0.47313947757516017,0.050261359067149174,0.04752529024373685,0.0,0.029411764705882353,0.09391141023634371,0.1296416334845819,0.008954154727793696,0.06463601842126525,0.00841609156707625,0.0,0.04710685404726388,0.1136732705423839,0.12087401208740121,0.0,0.08502125531382845,0.022182786157941437,0.061103351955307264,0.0762970498474059,0.241635687732342,0.03575898444484177
Mollicutes,0.09950248756218906,0.0,0.0,0.0,0.0,0.0,0.0,0.0,0.0,0.0,0.0,0.0,0.0,0.0,0.0,0.0,0.0,0.0,0.0,0.0,0.0,0.0,0.0,0.0,0.0,0.0,0.0,0.0,0.0
Bacteroidetes_no_class,0.0,0.0,0.0,0.0,0.0,0.0,0.0,0.0,0.0,0.0,0.0,0.0,0.0,0.0,0.0,0.0,0.0,0.0,0.0,0.0,0.0,0.0,0.0,0.0,0.0,0.0,0.0,0.0,0.0
Sphingobacteria,0.0,0.0,0.0,0.0,0.0,0.0,0.0,0.0,0.0,0.0,0.0,0.0,0.0,0.0,0.0,0.0,0.0,0.0,0.0,0.0,0.0,0.0,0.0,0.0,0.0,0.0,0.0,0.0,0.0
Deltaproteobacteria,0.0,0.0,0.0,0.0,0.0,0.0,0.0,0.0,0.0,0.0,0.0,0.0,0.0,0.0,0.0,0.0,0.0,0.0,0.0,0.0,0.0,0.0,0.0,0.0,0.0,0.0,0.0,0.0,0.0
OD1_no_class,0.0,0.0,0.0,0.0,0.0,0.0,0.0,0.0,0.0,0.0,0.0,0.0,0.0,0.0,0.0,0.0,0.0,0.0,0.0,0.0,0.0,0.0,0.0,0.0,0.0,0.0,0.0,0.0,0.0
TM7_no_class,0.0,0.0,0.0,0.0,0.0,0.0,0.0,0.0,0.0,0.0,0.0,0.0,0.0,0.0,0.0,0.0,0.0,0.0,0.0,0.0,0.0,0.0,0.0,0.0,0.0,0.0,0.0,0.0,0.0
Thermomicrobia,0.0,0.0,0.0,0.0,0.0,0.0,0.0,0.0,0.0,0.0,0.0,0.0,0.0,0.0,0.0,0.0,0.0,0.0,0.0,0.0,0.0,0.0,0.0,0.0,0.0,0.0,0.0,0.0,0.0
Deinococci,0.0,0.0,0.0,0.0,0.0,0.0,0.0,0.0,0.0,0.0,0.0,0.0,0.0,0.0,0.0,0.0,0.0,0.0,0.0,0.0,0.0,0.0,0.0,0.0,0.0,0.0,0.0,0.0,0.0
OP11_no_class,0.0,0.0,0.0,0.0,0.0,0.0,0.0,0.0,0.0,0.0,0.0,0.0,0.0,0.0,0.0,0.0,0.0,0.0,0.0,0.0,0.0,0.0,0.0,0.0,0.0,0.0,0.0,0.0,0.0
Verrucomicrobiae,0.0,0.0,0.0,0.0,0.0,0.0,0.0,0.0,0.0,0.0,0.0,0.0,0.0,0.0,0.0,0.0,0.0,0.0,0.0,0.0,0.0,0.0,0.0,0.0,0.0,0.0,0.0,0.0,0.0
Acidobacteria_Gp6,0.0,0.0,0.0,0.0,0.0,0.0,0.0,0.0,0.0,0.0,0.0,0.0,0.0,0.0,0.0,0.0,0.0,0.0,0.0,0.0,0.0,0.0,0.0,0.0,0.0,0.0,0.0,0.0,0.0
Nitrospira,0.0,0.0,0.0,0.0,0.0,0.0,0.0,0.0,0.0,0.0,0.0,0.0,0.0,0.0,0.0,0.0,0.0,0.0,0.0,0.0,0.0,0.0,0.0,0.0,0.0,0.0,0.0,0.0,0.0
Subdivision3,0.0,0.0,0.0,0.0,0.0,0.0,0.0,0.0,0.0,0.0,0.0,0.0,0.0,0.0,0.0,0.0,0.0,0.0,0.0,0.0,0.0,0.0,0.0,0.0,0.0,0.0,0.0,0.0,0.0
Gemmatimonadetes,0.0,0.0,0.0,0.0,0.0,0.0,0.0,0.0,0.0,0.0,0.0,0.0,0.0,0.0,0.0,0.0,0.0,0.0,0.0,0.0,0.0,0.0,0.0,0.0,0.0,0.0,0.0,0.0,0.0
Opitutae,0.0,0.0,0.0,0.0,0.0,0.0,0.0,0.0,0.0,0.0,0.0,0.0,0.0,0.0,0.0,0.0,0.0,0.0,0.0,0.0,0.0,0.0,0.0,0.0,0.0,0.0,0.0,0.0,0.0
Holophagae,0.0,0.0,0.0,0.0,0.0,0.0,0.0,0.0,0.0,0.0,0.0,0.0,0.0,0.0,0.0,0.0,0.0,0.0,0.0,0.0,0.0,0.0,0.0,0.0,0.0,0.0,0.0,0.0,0.0
